%YAML 1.1
%TAG !u! tag:unity3d.com,2011:
--- !u!1045 &1
EditorBuildSettings:
  m_ObjectHideFlags: 0
  serializedVersion: 2
  m_Scenes:
  - enabled: 1
    path: Assets/Scenes/MainMenu.unity
    guid: 03c7faa2c373c0140a24118ea8a48218
  - enabled: 1
    path: Assets/Scenes/Game.unity
    guid: 2cda990e2423bbf4892e6590ba056729
  - enabled: 1
    path: Assets/Scenes/GameOver.unity
    guid: 4646a2b405b4d564eb7a2a2040b7e3f1
  m_configObjects:
    com.unity.input.settings: {fileID: 11400000, guid: e839cfa3dff21d34a9ad69fb96104c2f, type: 2}
