%YAML 1.1
%TAG !u! tag:unity3d.com,2011:
--- !u!114 &11400000
MonoBehaviour:
  m_ObjectHideFlags: 0
  m_CorrespondingSourceObject: {fileID: 0}
  m_PrefabInstance: {fileID: 0}
  m_PrefabAsset: {fileID: 0}
  m_GameObject: {fileID: 0}
  m_Enabled: 1
  m_EditorHideFlags: 0
  m_Script: {fileID: 11500000, guid: f296d39c78e763849afefc0a0a5b93bc, type: 3}
  m_Name: Wave 1
  m_EditorClassIdentifier: 
  enemyPrefabs:
  - {fileID: 8487655315664834257, guid: c1b399626156bf647b526de0799290c8, type: 3}
  - {fileID: 8487655315664834257, guid: c1b399626156bf647b526de0799290c8, type: 3}
  - {fileID: 8487655315664834257, guid: c1b399626156bf647b526de0799290c8, type: 3}
  pathPrefab: {fileID: 2989601077477398869, guid: 6c60a206db3077345a03a26d61d33c2e, type: 3}
  moveSpeed: 5
  timeBetweenEnemySpawns: 1
  spawnTimeVariance: 0
  minimumSpawnTime: 0.2
